id	database	name	metadata	ncbi: id	ncbi: name	ncbi: match_type	ncbi: match_identity	ncbi: match_coverage	ncbi: metadata	resfinder: id	resfinder: name	resfinder: match_type	resfinder: match_identity	resfinder: match_coverage	resfinder: metadata
ARO:3001816	card	ACC-2	is_a: ARO:3000073:ACC beta-lactamase, phenotype: confers resistance to drug class: monobactam,cephalosporin,penam	WP_063857702.1	blaACC-2	RBH	1.0	1.0	phenotype: confers resistance to subclass CEPHALOSPORIN, product: cephalosporin-hydrolyzing class C beta-lactamase ACC-2	blaACC-2	blaACC-2	RBH	1.0	1.0	phenotype: confers resistance to Amoxicillin, Amoxicillin+Clavulanic acid, Ampicillin, Ampicillin+Clavulanic acid, Cefotaxime, Cefoxitin, Ceftazidime, Piperacillin, Piperacillin+Tazobactam, Ticarcillin, Ticarcillin+Clavulanic acid
ARO:3002012	card	CMY-1	is_a: ARO:3000069:CMY beta-lactamase, phenotype: confers resistance to drug class: cephamycin	WP_032488864.1	blaCMY-1	RBH	1.0	1.0	phenotype: confers resistance to subclass CEPHALOSPORIN, product: class C beta-lactamase CMY-1	blaCMY-1	blaCMY-1	RBH	1.0	1.0	phenotype: confers resistance to Amoxicillin, Amoxicillin+Clavulanic acid, Ampicillin, Ampicillin+Clavulanic acid, Cefotaxime, Cefoxitin, Ceftazidime, Piperacillin, Piperacillin+Tazobactam, Ticarcillin, Ticarcillin+Clavulanic acid
ARO:3001082	card	SHV-24	is_a: ARO:3000015:SHV beta-lactamase, phenotype: confers resistance to drug class: penam,cephalosporin,carbapenem	WP_063864670.1	blaSHV-24	RBH	1.0	1.0	phenotype: confers resistance to subclass CEPHALOSPORIN, product: class A extended-spectrum beta-lactamase SHV-24	blaSHV-24	blaSHV-24	RBH	1.0	1.0	phenotype: confers resistance to Amoxicillin, Ampicillin, Aztreonam, Cefepime, Cefotaxime, Ceftazidime, Ceftriaxone, Piperacillin, Ticarcillin
ARO:3000951	card	TEM-84	is_a: ARO:3000014:TEM beta-lactamase, phenotype: confers resistance to drug class: monobactam,cephalosporin,penem,penam	WP_063865053.1	blaTEM-84	RBH	1.0	1.0	phenotype: confers resistance to subclass BETA-LACTAM, product: inhibitor-resistant class A broad-spectrum beta-lactamase TEM-84	blaTEM-84	blaTEM-84	RBH	1.0	1.0	phenotype: confers resistance to Amoxicillin, Amoxicillin+Clavulanic acid, Ampicillin, Ampicillin+Clavulanic acid, Piperacillin, Piperacillin+Tazobactam, Ticarcillin, Ticarcillin+Clavulanic acid
ARO:3001350	card	SHV-180	is_a: ARO:3000015:SHV beta-lactamase, phenotype: confers resistance to drug class: penam,cephalosporin,carbapenem	WP_063864659.1	blaSHV-180	RBH	1.0	1.0	phenotype: confers resistance to subclass BETA-LACTAM, product: class A beta-lactamase SHV-180	blaSHV-180	blaSHV-180	RBH	1.0	1.0	phenotype: confers resistance to Unknown Beta-lactam
